{
    "Payloads": [
        {
            "FwVersion": "1",
            "Guid": "de6066e8-0256-4fad-8238-e406e274c4cf",
            "HardwareInstance": "0",
            "LowestSupportedVersion": "1",
            "MonotonicCount": "0",
            "Payload": "ImageA.bin",
            "UpdateImageIndex": "1",
            "OpenSslSignerPrivateCertFile": "CRT.pem",
            "OpenSslTrustedPublicCertFile": "CRT.pub.pem",
            "OpenSslOtherPublicCertFile":   "CRT.pub.pem"
        }
    ]
}
